riverbed
…
This, as well as the calculation of corresponding trapezia, is realised by the function area_between().

result_area <- area_between(s1,s2)
result_area
#> $data
#> # A tibble: 42 x 15
#>        l    z1 p        z2      a type  l_obs z_obs series z1min z1max z2min
#>    <dbl> <dbl> <chr> <dbl>  <dbl> <chr> <dbl> <dbl> <chr>  <dbl> <dbl> <dbl>
#>  1  0.5  NA    obse~  2.8  NA     <NA>    0.5   2.8 s2        NA    NA    NA
#>  2  1.1   1.4  obse~  2.41  0     <NA>    1.1   1.4 s1        NA    NA    NA
#>  3  1.1   1.4  inte~  2.41 -0.187 lower  NA    NA   s2        NA    NA    NA
#>  4  1.47  2.17 inte~  2.17 NA     lower  NA    NA   <NA>      NA    NA    NA
#>  5  1.47  2.17 inte~  2.17  1.44  upper  NA    NA   <NA>      NA    NA    NA
#>  6  2.5   4.3  obse~  1.5   0     <NA>    2.5   4.3 s1        NA    NA    NA
#>  7  2.5   4.3  obse~  1.5   1.79  upper   2.5   1.5 s2        NA    NA    NA
#>  8  3.4   3.1  obse~  1.92  0     <NA>    3.4   3.1 s1        NA    NA    NA
#>  9  3.4   3.1  inte~  1.92  0.504 upper  NA    NA   s2        NA    NA    NA
#> 10  4     2.70 inte~  2.2   0     <NA>   NA    NA   s1        NA    NA    NA
#> # ... with 32 more rows, and 3 more variables: z2max <dbl>, lmin <dbl>,
#> #   lmax <dbl>
…
