A function to calculate area between two profiles — area_between • riverbed
…
area_by_type

sigma_area

data

    Examples

s1 <- tibble(l=c(1,3,5,6,9),
             z=c(1,2,3,2.5,5))
s2 <- tibble(l=c(0.5,2.5,4,6,8),
             z=c(3,1,2,4,3))
area_between(s1,s2)
#> $data
#> # A tibble: 26 x 15
#>        l    z1 p        z2      a type  l_obs z_obs series z1min z1max z2min
#>    <dbl> <dbl> <chr> <dbl>  <dbl> <chr> <dbl> <dbl> <chr>  <dbl> <dbl> <dbl>
#>  1   0.5 NA    obse~  3    NA     NA      0.5     3 s2        NA    NA    NA
#>  2   1    1    obse~  2.5   0     NA      1       1 s1        NA    NA    NA
#>  3   1    1    inte~  2.5  -0.75  lower  NA      NA s2        NA    NA    NA
#>  4   2    1.5  inte~  1.5  NA     lower  NA      NA NA        NA    NA    NA
#>  5   2    1.5  inte~  1.5   0.188 upper  NA      NA NA        NA    NA    NA
#>  6   2.5  1.75 inte~  1     0     NA     NA      NA s1        NA    NA    NA
#>  7   2.5  1.75 obse~  1     0.354 upper   2.5     1 s2        NA    NA    NA
#>  8   3    2    obse~  1.33  0     NA      3       2 s1        NA    NA    NA
#>  9   3    2    inte~  1.33  0.583 upper  NA      NA s2        NA    NA    NA
#> 10   4    2.5  inte~  2     0     NA     NA      NA s1        NA    NA    NA
#> # ... with 16 more rows, and 3 more variables: z2max <dbl>, lmin <dbl>,
#> #   lmax <dbl>
…
